R for Social Scientists: Starting with Data
…
R

interviews
## Try also
## view(interviews)
## head(interviews)

OUTPUT

# A tibble: 131 × 14
   key_ID village  interview_date      no_membrs years_liv respo…¹ rooms memb_…²
    <dbl> <chr>    <dttm>                  <dbl>     <dbl> <chr>   <dbl> <chr>  
 1      1 God      2016-11-17 00:00:00         3         4 muddaub     1 <NA>   
 2      1 God      2016-11-17 00:00:00         7         9 muddaub     1 yes    
 3      3 God      2016-11-17 00:00:00        10        15 burntb…     1 <NA>   
 4      4 God      2016-11-17 00:00:00         7         6 burntb…     1 <NA>   
 5      5 God      2016-11-17 00:00:00         7        40 burntb…     1 <NA>   
 6      6 God      2016-11-17 00:00:00         3         3 muddaub     1 <NA>   
 7      7 God      2016-11-17 00:00:00         6        38 muddaub     1 no     
 8      8 Chirodzo 2016-11-16 00:00:00        12        70 burntb…     3 yes    
 9      9 Chirodzo 2016-11-16 00:00:00         8         6 burntb…     1 no     
10     10 Chirodzo 2016-12-16 00:00:00        12        23 burntb…     5 no     
# … with 121 more rows, 6 more variables: affect_conflicts <chr>,
#   liv_count <dbl>, items_owned <chr>, no_meals <dbl>, months_lack_food <chr>,
#   instanceID <chr>, and abbreviated variable names ¹​respondent_wall_type,
#   ²​memb_assoc
…
R

## first column of the tibble
interviews[1]

OUTPUT

# A tibble: 131 × 1
   key_ID
    <dbl>
 1      1
 2      1
 3      3
 4      4
 5      5
 6      6
 7      7
 8      8
 9      9
10     10
# … with 121 more rows
…
: is a special function that creates numeric vectors of
integers in increasing or decreasing order, test 1:10 and
10:1 for instance.

You can also exclude certain indices of a data frame using the
“-” sign:

R

interviews[, -1]          # The whole tibble, except the first column

OUTPUT

# A tibble: 131 × 13
   village  interview_date      no_membrs years_…¹ respo…² rooms memb_…³ affec…⁴
   <chr>    <dttm>                  <dbl>    <dbl> <chr>   <dbl> <chr>   <chr>  
 1 God      2016-11-17 00:00:00         3        4 muddaub     1 <NA>    <NA>   
 2 God      2016-11-17 00:00:00         7        9 muddaub     1 yes     once   
 3 God      2016-11-17 00:00:00        10       15 burntb…     1 <NA>    <NA>   
 4 God      2016-11-17 00:00:00         7        6 burntb…     1 <NA>    <NA>   
 5 God      2016-11-17 00:00:00         7       40 burntb…     1 <NA>    <NA>   
 6 God      2016-11-17 00:00:00         3        3 muddaub     1 <NA>    <NA>   
 7 God      2016-11-17 00:00:00         6       38 muddaub     1 no      never  
 8 Chirodzo 2016-11-16 00:00:00        12       70 burntb…     3 yes     never  
 9 Chirodzo 2016-11-16 00:00:00         8        6 burntb…     1 no      never  
10 Chirodzo 2016-12-16 00:00:00        12       23 burntb…     5 no      never  
# … with 121 more rows, 5 more variables: liv_count <dbl>, items_owned <chr>,
#   no_meals <dbl>, months_lack_food <chr>, instanceID <chr>, and abbreviated
#   variable names ¹​years_liv, ²​respondent_wall_type, ³​memb_assoc,
#   ⁴​affect_conflicts
…
R

interviews$day <- day(dates)
interviews$month <- month(dates)
interviews$year <- year(dates)
interviews

OUTPUT

# A tibble: 131 × 17
   key_ID village  interview_date      no_membrs years_liv respo…¹ rooms memb_…²
    <dbl> <chr>    <dttm>                  <dbl>     <dbl> <chr>   <dbl> <chr>  
 1      1 God      2016-11-17 00:00:00         3         4 muddaub     1 <NA>   
 2      1 God      2016-11-17 00:00:00         7         9 muddaub     1 yes    
 3      3 God      2016-11-17 00:00:00        10        15 burntb…     1 <NA>   
 4      4 God      2016-11-17 00:00:00         7         6 burntb…     1 <NA>   
 5      5 God      2016-11-17 00:00:00         7        40 burntb…     1 <NA>   
 6      6 God      2016-11-17 00:00:00         3         3 muddaub     1 <NA>   
 7      7 God      2016-11-17 00:00:00         6        38 muddaub     1 no     
 8      8 Chirodzo 2016-11-16 00:00:00        12        70 burntb…     3 yes    
 9      9 Chirodzo 2016-11-16 00:00:00         8         6 burntb…     1 no     
10     10 Chirodzo 2016-12-16 00:00:00        12        23 burntb…     5 no     
# … with 121 more rows, 9 more variables: affect_conflicts <chr>,
#   liv_count <dbl>, items_owned <chr>, no_meals <dbl>, months_lack_food <chr>,
#   instanceID <chr>, day <int>, month <dbl>, year <dbl>, and abbreviated
#   variable names ¹​respondent_wall_type, ²​memb_assoc
…
