R for Social Scientists: Data Wrangling with tidyr
…
However, with some inspection, we notice that there are more than one
row in the dataset with the same key_ID (as seen below).
However, the instanceIDs associated with these duplicate
key_IDs are not the same. Thus, we should think of
instanceID as the unique identifier for observations!

R

interviews %>%
  select(key_ID, village, interview_date, instanceID)

OUTPUT

# A tibble: 131 × 4
   key_ID village  interview_date      instanceID                               
    <dbl> <chr>    <dttm>              <chr>                                    
 1      1 God      2016-11-17 00:00:00 uuid:ec241f2c-0609-46ed-b5e8-fe575f6cefef
 2      1 God      2016-11-17 00:00:00 uuid:099de9c9-3e5e-427b-8452-26250e840d6e
 3      3 God      2016-11-17 00:00:00 uuid:193d7daf-9582-409b-bf09-027dd36f9007
 4      4 God      2016-11-17 00:00:00 uuid:148d1105-778a-4755-aa71-281eadd4a973
 5      5 God      2016-11-17 00:00:00 uuid:2c867811-9696-4966-9866-f35c3e97d02d
 6      6 God      2016-11-17 00:00:00 uuid:daa56c91-c8e3-44c3-a663-af6a49a2ca70
 7      7 God      2016-11-17 00:00:00 uuid:ae20a58d-56f4-43d7-bafa-e7963d850844
 8      8 Chirodzo 2016-11-16 00:00:00 uuid:d6cee930-7be1-4fd9-88c0-82a08f90fb5a
 9      9 Chirodzo 2016-11-16 00:00:00 uuid:846103d2-b1db-4055-b502-9cd510bb7b37
10     10 Chirodzo 2016-12-16 00:00:00 uuid:8f4e49bc-da81-4356-ae34-e0d794a23721
# ℹ 121 more rows
…
