R for Social Scientists: All in One View
…
R

interviews
## Try also
## view(interviews)
## head(interviews)

OUTPUT

# A tibble: 131 × 14
   key_ID village  interview_date      no_membrs years_liv respondent_wall_type
    <dbl> <chr>    <dttm>                  <dbl>     <dbl> <chr>               
 1      1 God      2016-11-17 00:00:00         3         4 muddaub             
 2      2 God      2016-11-17 00:00:00         7         9 muddaub             
 3      3 God      2016-11-17 00:00:00        10        15 burntbricks         
 4      4 God      2016-11-17 00:00:00         7         6 burntbricks         
 5      5 God      2016-11-17 00:00:00         7        40 burntbricks         
 6      6 God      2016-11-17 00:00:00         3         3 muddaub             
 7      7 God      2016-11-17 00:00:00         6        38 muddaub             
 8      8 Chirodzo 2016-11-16 00:00:00        12        70 burntbricks         
 9      9 Chirodzo 2016-11-16 00:00:00         8         6 burntbricks         
10     10 Chirodzo 2016-12-16 00:00:00        12        23 burntbricks         
# ℹ 121 more rows
# ℹ 8 more variables: rooms <dbl>, memb_assoc <chr>, affect_conflicts <chr>,
#   liv_count <dbl>, items_owned <chr>, no_meals <dbl>, months_lack_food <chr>,
#   instanceID <chr>
…
R

## first column of the tibble
interviews[1]

OUTPUT

# A tibble: 131 × 1
   key_ID
    <dbl>
 1      1
 2      2
 3      3
 4      4
 5      5
 6      6
 7      7
 8      8
 9      9
10     10
# ℹ 121 more rows
…
: is a special function that creates numeric vectors of
integers in increasing or decreasing order, test 1:10 and
10:1 for instance.

You can also exclude certain indices of a data frame using the
“-” sign:

R

interviews[, -1]          # The whole tibble, except the first column

OUTPUT

# A tibble: 131 × 13
   village  interview_date      no_membrs years_liv respondent_wall_type rooms
   <chr>    <dttm>                  <dbl>     <dbl> <chr>                <dbl>
 1 God      2016-11-17 00:00:00         3         4 muddaub                  1
 2 God      2016-11-17 00:00:00         7         9 muddaub                  1
 3 God      2016-11-17 00:00:00        10        15 burntbricks              1
 4 God      2016-11-17 00:00:00         7         6 burntbricks              1
 5 God      2016-11-17 00:00:00         7        40 burntbricks              1
 6 God      2016-11-17 00:00:00         3         3 muddaub                  1
 7 God      2016-11-17 00:00:00         6        38 muddaub                  1
 8 Chirodzo 2016-11-16 00:00:00        12        70 burntbricks              3
 9 Chirodzo 2016-11-16 00:00:00         8         6 burntbricks              1
10 Chirodzo 2016-12-16 00:00:00        12        23 burntbricks              5
# ℹ 121 more rows
# ℹ 7 more variables: memb_assoc <chr>, affect_conflicts <chr>,
#   liv_count <dbl>, items_owned <chr>, no_meals <dbl>, months_lack_food <chr>,
#   instanceID <chr>
…
R

interviews$day <- day(dates)
interviews$month <- month(dates)
interviews$year <- year(dates)
interviews

OUTPUT

# A tibble: 131 × 17
   key_ID village  interview_date      no_membrs years_liv respondent_wall_type
    <dbl> <chr>    <dttm>                  <dbl>     <dbl> <chr>               
 1      1 God      2016-11-17 00:00:00         3         4 muddaub             
 2      2 God      2016-11-17 00:00:00         7         9 muddaub             
 3      3 God      2016-11-17 00:00:00        10        15 burntbricks         
 4      4 God      2016-11-17 00:00:00         7         6 burntbricks         
 5      5 God      2016-11-17 00:00:00         7        40 burntbricks         
 6      6 God      2016-11-17 00:00:00         3         3 muddaub             
 7      7 God      2016-11-17 00:00:00         6        38 muddaub             
 8      8 Chirodzo 2016-11-16 00:00:00        12        70 burntbricks         
 9      9 Chirodzo 2016-11-16 00:00:00         8         6 burntbricks         
10     10 Chirodzo 2016-12-16 00:00:00        12        23 burntbricks         
# ℹ 121 more rows
# ℹ 11 more variables: rooms <dbl>, memb_assoc <chr>, affect_conflicts <chr>,
#   liv_count <dbl>, items_owned <chr>, no_meals <dbl>, months_lack_food <chr>,
#   instanceID <chr>, day <int>, month <dbl>, year <dbl>
…
To choose rows based on specific criteria, we can use the
filter() function. The argument after the dataframe is the
condition we want our final dataframe to adhere to (e.g. village name is
Chirodzo):

R

# filters observations where village name is "Chirodzo"
filter(interviews, village == "Chirodzo")

OUTPUT

# A tibble: 39 × 14
   key_ID village  interview_date      no_membrs years_liv respondent_wall_type
    <dbl> <chr>    <dttm>                  <dbl>     <dbl> <chr>               
 1      8 Chirodzo 2016-11-16 00:00:00        12        70 burntbricks         
 2      9 Chirodzo 2016-11-16 00:00:00         8         6 burntbricks         
 3     10 Chirodzo 2016-12-16 00:00:00        12        23 burntbricks         
 4     34 Chirodzo 2016-11-17 00:00:00         8        18 burntbricks         
 5     35 Chirodzo 2016-11-17 00:00:00         5        45 muddaub             
 6     36 Chirodzo 2016-11-17 00:00:00         6        23 sunbricks           
 7     37 Chirodzo 2016-11-17 00:00:00         3         8 burntbricks         
 8     43 Chirodzo 2016-11-17 00:00:00         7        29 muddaub             
 9     44 Chirodzo 2016-11-17 00:00:00         2         6 muddaub             
10     45 Chirodzo 2016-11-17 00:00:00         9         7 muddaub             
# ℹ 29 more rows
# ℹ 8 more variables: rooms <dbl>, memb_assoc <chr>, affect_conflicts <chr>,
#   liv_count <dbl>, items_owned <chr>, no_meals <dbl>, months_lack_food <chr>,
#   instanceID <chr>
…
In an “or” statement, observations must meet at least one of
the specified conditions. To form “or” statements we use the logical
operator for “or,” which is the vertical bar (|):

R

# filters observations with "|" logical operator
# output dataframe satisfies AT LEAST ONE of the specified conditions
filter(interviews, village == "Chirodzo" | village == "Ruaca")

OUTPUT

# A tibble: 88 × 14
   key_ID village  interview_date      no_membrs years_liv respondent_wall_type
    <dbl> <chr>    <dttm>                  <dbl>     <dbl> <chr>               
 1      8 Chirodzo 2016-11-16 00:00:00        12        70 burntbricks         
 2      9 Chirodzo 2016-11-16 00:00:00         8         6 burntbricks         
 3     10 Chirodzo 2016-12-16 00:00:00        12        23 burntbricks         
 4     23 Ruaca    2016-11-21 00:00:00        10        20 burntbricks         
 5     24 Ruaca    2016-11-21 00:00:00         6         4 burntbricks         
 6     25 Ruaca    2016-11-21 00:00:00        11         6 burntbricks         
 7     26 Ruaca    2016-11-21 00:00:00         3        20 burntbricks         
 8     27 Ruaca    2016-11-21 00:00:00         7        36 burntbricks         
 9     28 Ruaca    2016-11-21 00:00:00         2         2 muddaub             
10     29 Ruaca    2016-11-21 00:00:00         7        10 burntbricks         
# ℹ 78 more rows
# ℹ 8 more variables: rooms <dbl>, memb_assoc <chr>, affect_conflicts <chr>,
#   liv_count <dbl>, items_owned <chr>, no_meals <dbl>, months_lack_food <chr>,
#   instanceID <chr>
…
Ctrl + Shift + M if you have a PC
or Cmd + Shift + M if you have a
Mac.

R

# the following example is run using magrittr pipe but the output will be same with the native pipe
interviews %>%
    filter(village == "Chirodzo") %>%
    select(village:respondent_wall_type)

OUTPUT

# A tibble: 39 × 5
   village  interview_date      no_membrs years_liv respondent_wall_type
   <chr>    <dttm>                  <dbl>     <dbl> <chr>               
 1 Chirodzo 2016-11-16 00:00:00        12        70 burntbricks         
 2 Chirodzo 2016-11-16 00:00:00         8         6 burntbricks         
 3 Chirodzo 2016-12-16 00:00:00        12        23 burntbricks         
 4 Chirodzo 2016-11-17 00:00:00         8        18 burntbricks         
 5 Chirodzo 2016-11-17 00:00:00         5        45 muddaub             
 6 Chirodzo 2016-11-17 00:00:00         6        23 sunbricks           
 7 Chirodzo 2016-11-17 00:00:00         3         8 burntbricks         
 8 Chirodzo 2016-11-17 00:00:00         7        29 muddaub             
 9 Chirodzo 2016-11-17 00:00:00         2         6 muddaub             
10 Chirodzo 2016-11-17 00:00:00         9         7 muddaub             
# ℹ 29 more rows
…
If we want to create a new object with this smaller version of the
data, we can assign it a new name:

R

interviews_ch <- interviews %>%
    filter(village == "Chirodzo") %>%
    select(village:respondent_wall_type)

interviews_ch

OUTPUT

# A tibble: 39 × 5
   village  interview_date      no_membrs years_liv respondent_wall_type
   <chr>    <dttm>                  <dbl>     <dbl> <chr>               
 1 Chirodzo 2016-11-16 00:00:00        12        70 burntbricks         
 2 Chirodzo 2016-11-16 00:00:00         8         6 burntbricks         
 3 Chirodzo 2016-12-16 00:00:00        12        23 burntbricks         
 4 Chirodzo 2016-11-17 00:00:00         8        18 burntbricks         
 5 Chirodzo 2016-11-17 00:00:00         5        45 muddaub             
 6 Chirodzo 2016-11-17 00:00:00         6        23 sunbricks           
 7 Chirodzo 2016-11-17 00:00:00         3         8 burntbricks         
 8 Chirodzo 2016-11-17 00:00:00         7        29 muddaub             
 9 Chirodzo 2016-11-17 00:00:00         2         6 muddaub             
10 Chirodzo 2016-11-17 00:00:00         9         7 muddaub             
# ℹ 29 more rows
…
  Show me the solution

R

interviews %>%
    filter(memb_assoc == "yes") %>%
    select(affect_conflicts, liv_count, no_meals)

OUTPUT

# A tibble: 33 × 3
   affect_conflicts liv_count no_meals
   <chr>                <dbl>    <dbl>
 1 once                     3        2
 2 never                    2        2
 3 never                    2        3
 4 once                     3        2
 5 frequently               1        3
 6 more_once                5        2
 7 more_once                3        2
 8 more_once                2        3
 9 once                     3        3
10 never                    3        3
# ℹ 23 more rows
…
We might be interested in the ratio of number of household members to
rooms used for sleeping (i.e. avg number of people per room):

R

interviews %>%
    mutate(people_per_room = no_membrs / rooms)

OUTPUT

# A tibble: 131 × 15
   key_ID village  interview_date      no_membrs years_liv respondent_wall_type
    <dbl> <chr>    <dttm>                  <dbl>     <dbl> <chr>               
 1      1 God      2016-11-17 00:00:00         3         4 muddaub             
 2      2 God      2016-11-17 00:00:00         7         9 muddaub             
 3      3 God      2016-11-17 00:00:00        10        15 burntbricks         
 4      4 God      2016-11-17 00:00:00         7         6 burntbricks         
 5      5 God      2016-11-17 00:00:00         7        40 burntbricks         
 6      6 God      2016-11-17 00:00:00         3         3 muddaub             
 7      7 God      2016-11-17 00:00:00         6        38 muddaub             
 8      8 Chirodzo 2016-11-16 00:00:00        12        70 burntbricks         
 9      9 Chirodzo 2016-11-16 00:00:00         8         6 burntbricks         
10     10 Chirodzo 2016-12-16 00:00:00        12        23 burntbricks         
# ℹ 121 more rows
# ℹ 9 more variables: rooms <dbl>, memb_assoc <chr>, affect_conflicts <chr>,
#   liv_count <dbl>, items_owned <chr>, no_meals <dbl>, months_lack_food <chr>,
#   instanceID <chr>, people_per_room <dbl>
…
To remove these cases, we could insert a filter() in the
chain:

R

interviews %>%
    filter(!is.na(memb_assoc)) %>%
    mutate(people_per_room = no_membrs / rooms)

OUTPUT

# A tibble: 92 × 15
   key_ID village  interview_date      no_membrs years_liv respondent_wall_type
    <dbl> <chr>    <dttm>                  <dbl>     <dbl> <chr>               
 1      2 God      2016-11-17 00:00:00         7         9 muddaub             
 2      7 God      2016-11-17 00:00:00         6        38 muddaub             
 3      8 Chirodzo 2016-11-16 00:00:00        12        70 burntbricks         
 4      9 Chirodzo 2016-11-16 00:00:00         8         6 burntbricks         
 5     10 Chirodzo 2016-12-16 00:00:00        12        23 burntbricks         
 6     12 God      2016-11-21 00:00:00         7        20 burntbricks         
 7     13 God      2016-11-21 00:00:00         6         8 burntbricks         
 8     15 God      2016-11-21 00:00:00         5        30 sunbricks           
 9     21 God      2016-11-21 00:00:00         8        20 burntbricks         
10     24 Ruaca    2016-11-21 00:00:00         6         4 burntbricks         
# ℹ 82 more rows
# ℹ 9 more variables: rooms <dbl>, memb_assoc <chr>, affect_conflicts <chr>,
#   liv_count <dbl>, items_owned <chr>, no_meals <dbl>, months_lack_food <chr>,
#   instanceID <chr>, people_per_room <dbl>
…
  Show me the solution

R

interviews_long %>%
  filter(items_owned_logical) %>% 
  group_by(village) %>% 
  count(items_owned)

OUTPUT

# A tibble: 47 × 3
# Groups:   village [3]
   village  items_owned         n
   <chr>    <chr>           <int>
 1 Chirodzo bicycle            17
 2 Chirodzo computer            2
 3 Chirodzo cow_cart            6
 4 Chirodzo cow_plough         20
 5 Chirodzo electricity         1
 6 Chirodzo fridge              1
 7 Chirodzo lorry               1
 8 Chirodzo mobile_phone       25
 9 Chirodzo motorcyle          13
10 Chirodzo no_listed_items     3
# ℹ 37 more rows
…
R

flattened_json_data <- json_data %>% 
  mutate(across(where(is.list), as.character))
flattened_json_data

OUTPUT

# A tibble: 131 × 74
   C06_rooms B19_grand_liv A08_ward E01_water_use B18_sp_parents_liv
       <int> <chr>         <chr>    <chr>         <chr>             
 1         1 no            ward2    no            yes               
 2         1 yes           ward2    yes           yes               
 3         1 no            ward2    no            no                
 4         1 no            ward2    no            no                
 5         1 yes           ward2    no            no                
 6         1 no            ward2    no            no                
 7         1 yes           ward2    yes           no                
 8         3 yes           ward1    yes           yes               
 9         1 yes           ward2    yes           no                
10         5 no            ward2    yes           no                
# ℹ 121 more rows
# ℹ 69 more variables: B16_years_liv <int>, E_yes_group_count <chr>,
#   F_liv <chr>, `_note2` <lgl>, instanceID <chr>, B20_sp_grand_liv <chr>,
#   F10_liv_owned_other <lgl>, `_note1` <lgl>, F12_poultry <chr>,
#   D_plots_count <chr>, C02_respondent_wall_type_other <lgl>,
#   C02_respondent_wall_type <chr>, C05_buildings_in_compound <int>,
#   `_remitters` <chr>, E18_months_no_water <chr>, F07_use_income <chr>, …
…
