…
~~~
SN7577_tab[, 1]    # all of the 1st column values in the data.frame (as a vector)
~~~
{: .language-r}



~~~
# A tibble: 1,286 x 1
      Q1
   <int>
 1     1
 2     3
 3    10
 4     9
 5    10
 6     1
 7     1
 8     1
 9     9
10     2
# ... with 1,276 more rows
~~~
{: .output}



~~~
SN7577_tab[1]      # all of the 1st column values in the data.frame (as a data.frame)
~~~
{: .language-r}



~~~
# A tibble: 1,286 x 1
      Q1
   <int>
 1     1
 2     3
 3    10
 4     9
 5    10
 6     1
 7     1
 8     1
 9     9
10     2
# ... with 1,276 more rows
…
