…
    intersect, setdiff, setequal, union
~~~
{: .output}


~~~
select(SN7577, sex, age, numage)
~~~
{: .language-r}



~~~
# A tibble: 1,286 x 3
     sex   age numage
   <int> <int>  <int>
 1     2     6     64
 2     1     2     25
 3     2     7     90
 4     2     4     48
 5     1     4     48
 6     2     4     54
 7     2     7     74
 8     2     7     79
 9     2     7     65
10     1     6     62
# ... with 1,276 more rows
…
> > 
> > 
> > ~~~
> > SN7577_lt65 <- SN7577 %>%
> >   filter(numage < 65) %>%
> >   select( sex, age, numage)
> > 
> > SN7577_lt65
> > ~~~
> > {: .language-r}
> > 
> > 
> > 
> > ~~~
> > # A tibble: 982 x 3
> >      sex   age numage
> >    <int> <int>  <int>
> >  1     2     6     64
> >  2     1     2     25
> >  3     2     4     48
> >  4     1     4     48
> >  5     2     4     54
> >  6     1     6     62
> >  7     1     6     62
> >  8     1     4     53
> >  9     2     3     41
> > 10     2     3     35
> > # ... with 972 more rows
…
To create a new column of weight in kg:


~~~
SN7577 %>%
  mutate(income_000 = income * 1000) %>%
  select( income_000, income)
~~~
{: .language-r}



~~~
# A tibble: 1,286 x 2
   income_000 income
        <dbl>  <int>
 1     12000.     12
 2     16000.     16
 3     17000.     17
 4     17000.     17
 5     16000.     16
 6     12000.     12
 7     17000.     17
 8     17000.     17
 9     16000.     16
10     17000.     17
# ... with 1,276 more rows
…
You can also create a second new column based on the first new column within the same call of `mutate()`:


~~~
tax_rate <- 0.2
SN7577 %>%
    mutate(income_000 = income * 1000, income_taxed = income_000 * ( 1 - tax_rate)) %>%
    select( income_000, income, income_taxed)
~~~
{: .language-r}



~~~
# A tibble: 1,286 x 3
   income_000 income income_taxed
        <dbl>  <int>        <dbl>
 1     12000.     12        9600.
 2     16000.     16       12800.
 3     17000.     17       13600.
 4     17000.     17       13600.
 5     16000.     16       12800.
 6     12000.     12        9600.
 7     17000.     17       13600.
 8     17000.     17       13600.
 9     16000.     16       12800.
10     17000.     17       13600.
# ... with 1,276 more rows
…
> > ## Solution
> > 
> > 
> > ~~~
> > SN7577 %>%
> >  filter(numage >= 18) %>%
> >  mutate(voting_years = numage - 18) %>%
> >  select(voting_years, numage)
> > ~~~
> > {: .language-r}
> > 
> > 
> > 
> > ~~~
> > # A tibble: 1,280 x 2
> >    voting_years numage
> >           <dbl>  <int>
> >  1          46.     64
> >  2           7.     25
> >  3          72.     90
> >  4          30.     48
> >  5          30.     48
> >  6          36.     54
> >  7          56.     74
> >  8          61.     79
> >  9          47.     65
> > 10          44.     62
> > # ... with 1,270 more rows
…
If we ran a similar piece of code, but this time going back to usoing 'Q1'


~~~
SN7577 %>%
  filter(!is.na(numage)) %>%
  group_by(sex, Q1) %>%
  summarize(avg_age = mean(numage))
~~~
{: .language-r}



~~~
# A tibble: 22 x 3
# Groups:   sex [?]
     sex    Q1 avg_age
   <int> <int>   <dbl>
 1     1     1    55.9
 2     1     2    48.4
 3     1     3    50.1
 4     1     4    56.3
 5     1     5    36.4
 6     1     6    58.5
 7     1     7    45.0
 8     1     8    44.0
 9     1     9    39.4
10     1    10    46.9
# ... with 12 more rows
…
